<svg width="48" height="48" viewBox="0 0 48 48" fill="none" xmlns="http://www.w3.org/2000/svg">
<g clip-path="url(#clip0_35_1474)">
<path d="M42.344 35.0609H27.4848C27.2644 34.3073 26.8056 33.6454 26.1772 33.1746C25.5489 32.7037 24.7848 32.4492 23.9996 32.4492C23.2144 32.4492 22.4504 32.7037 21.822 33.1746C21.1937 33.6454 20.7349 34.3073 20.5144 35.0609H5.65527V37.1478H20.5144C20.7349 37.9014 21.1937 38.5633 21.822 39.0341C22.4504 39.505 23.2144 39.7595 23.9996 39.7595C24.7848 39.7595 25.5489 39.505 26.1772 39.0341C26.8056 38.5633 27.2644 37.9014 27.4848 37.1478H42.344V35.0609ZM23.9996 37.6696C23.6901 37.6696 23.3874 37.5778 23.13 37.4058C22.8726 37.2338 22.672 36.9893 22.5535 36.7033C22.4351 36.4173 22.4041 36.1026 22.4645 35.799C22.5249 35.4954 22.6739 35.2165 22.8928 34.9976C23.1117 34.7787 23.3906 34.6296 23.6943 34.5692C23.9979 34.5088 24.3126 34.5398 24.5986 34.6583C24.8846 34.7767 25.1291 34.9774 25.3011 35.2348C25.473 35.4922 25.5648 35.7948 25.5648 36.1043C25.5648 36.5195 25.3999 36.9176 25.1064 37.2111C24.8129 37.5047 24.4147 37.6696 23.9996 37.6696Z" fill="#E5E0FC"/>
<path d="M24.0833 36.6261C25.524 36.6261 26.692 35.4581 26.692 34.0174C26.692 32.5766 25.524 31.4087 24.0833 31.4087C22.6426 31.4087 21.4746 32.5766 21.4746 34.0174C21.4746 35.4581 22.6426 36.6261 24.0833 36.6261Z" fill="#AC7FFF"/>
<path d="M37.6379 20.7861H41.8118V46.9565H5.65527V42.7826H34.5179C35.3481 42.7826 36.1444 42.4528 36.7314 41.8657C37.3185 41.2787 37.6483 40.4824 37.6483 39.6522L37.6379 20.7861Z" fill="#E5E0FC"/>
<path d="M46.9565 32.9739H27.4852C27.2647 32.2203 26.8059 31.5585 26.1776 31.0876C25.5492 30.6167 24.7852 30.3622 24 30.3622C23.2148 30.3622 22.4508 30.6167 21.8224 31.0876C21.1941 31.5585 20.7353 32.2203 20.5148 32.9739H6.69913V22.1217H41.3009V28.8C41.3009 29.0767 41.4108 29.3422 41.6065 29.5378C41.8022 29.7335 42.0676 29.8435 42.3443 29.8435C42.6211 29.8435 42.8865 29.7335 43.0822 29.5378C43.2779 29.3422 43.3878 29.0767 43.3878 28.8V21.0783C43.3878 20.8015 43.2779 20.5361 43.0822 20.3404C42.8865 20.1447 42.6211 20.0348 42.3443 20.0348H38.6087V14.6087C38.6087 10.7342 37.0696 7.01845 34.3299 4.27879C31.5902 1.53913 27.8745 0 24 0C20.1255 0 16.4098 1.53913 13.6701 4.27879C10.9304 7.01845 9.3913 10.7342 9.3913 14.6087V20.0348H5.65565C5.3789 20.0348 5.11349 20.1447 4.9178 20.3404C4.72211 20.5361 4.61217 20.8015 4.61217 21.0783V32.9739H1.04348C0.766731 32.9739 0.501318 33.0839 0.305628 33.2795C0.109938 33.4752 0 33.7406 0 34.0174C0 34.2941 0.109938 34.5596 0.305628 34.7552C0.501318 34.9509 0.766731 35.0609 1.04348 35.0609H20.5148C20.7353 35.8145 21.1941 36.4763 21.8224 36.9472C22.4508 37.418 23.2148 37.6726 24 37.6726C24.7852 37.6726 25.5492 37.418 26.1776 36.9472C26.8059 36.4763 27.2647 35.8145 27.4852 35.0609H41.3009V45.913H6.69913V39.2348C6.69913 38.958 6.58919 38.6926 6.3935 38.4969C6.19781 38.3012 5.9324 38.1913 5.65565 38.1913C5.3789 38.1913 5.11349 38.3012 4.9178 38.4969C4.72211 38.6926 4.61217 38.958 4.61217 39.2348V46.9565C4.61217 47.2333 4.72211 47.4987 4.9178 47.6944C5.11349 47.8901 5.3789 48 5.65565 48H42.3443C42.6211 48 42.8865 47.8901 43.0822 47.6944C43.2779 47.4987 43.3878 47.2333 43.3878 46.9565V35.0609H46.9565C47.2333 35.0609 47.4987 34.9509 47.6944 34.7552C47.8901 34.5596 48 34.2941 48 34.0174C48 33.7406 47.8901 33.4752 47.6944 33.2795C47.4987 33.0839 47.2333 32.9739 46.9565 32.9739ZM11.4783 14.6087C11.4783 11.2877 12.7975 8.10277 15.1458 5.75449C17.4941 3.40621 20.679 2.08696 24 2.08696C27.321 2.08696 30.5059 3.40621 32.8542 5.75449C35.2025 8.10277 36.5217 11.2877 36.5217 14.6087V20.0348H11.4783V14.6087ZM24 35.5826C23.6904 35.5826 23.3878 35.4908 23.1304 35.3188C22.873 35.1468 22.6724 34.9024 22.5539 34.6164C22.4355 34.3304 22.4045 34.0157 22.4649 33.712C22.5253 33.4084 22.6743 33.1295 22.8932 32.9106C23.1121 32.6917 23.391 32.5426 23.6946 32.4823C23.9983 32.4219 24.313 32.4529 24.599 32.5713C24.885 32.6898 25.1294 32.8904 25.3014 33.1478C25.4734 33.4052 25.5652 33.7078 25.5652 34.0174C25.5652 34.4325 25.4003 34.8306 25.1068 35.1242C24.8132 35.4177 24.4151 35.5826 24 35.5826Z" fill="#341472"/>
</g>
<defs>
<clipPath id="clip0_35_1474">
<rect width="48" height="48" fill="white"/>
</clipPath>
</defs>
</svg>
